{
  "store.custom#about-us": {
    "path": "/sobre-nos",
    "isSitemapEntry": true
  },
  "store.custom#privacy-policies": {
    "path": "/politica-de-privacidade"
  },
  "store.custom#return-policy": {
    "path": "/troca-e-devolucao"
  },
  "store.custom#delivery-time": {
    "path": "/prazo-e-entrega"
  },
  "store.custom#location-store": {
    "path": "/nossas-lojas"
  },
  "store.custom#frequent-doubts": {
    "path": "/duvidas-frequentes"
  },
  "store.custom#methods-payments": {
    "path": "/parcelamentos"
  },
  "store.custom#contato": {
    "path": "/contato"
  }
}