{

  "flex-layout.col#menu-categorias--item1": {
    "children": [
        "image#menu-categorias--item1--image",
        "rich-text#menu-categorias--item1--title"
    ],
    "props": {
        "horizontalAlign": "center",
        "preventVerticalStretch": false,
        "verticalAlign": "top"
    }
  },
  "image#menu-categorias--item1--image": {
    "props": {
        "src": "assets/banners/cat-coroas.png",
        "link": {
            "url": "/floricultura/coroas-para-velorio",
            "attributeTitle": "Coroas"
        },
        "blockClass":"img-category",
        "alt": "Coroas para Velórios"
    }
  },
  "rich-text#menu-categorias--item1--title": {
    "props": {
    "textAlignment": "CENTER",
    "textPosition": "CENTER",
    "text": "[Coroas para Velórios](/floricultura/coroas-para-velorio)",
    "blockClass":"text-category",
    "textColor": "c-on-secodary"
    }
  },
  "flex-layout.col#menu-categorias--item2": {
    "children": [
        "image#menu-categorias--item2--image",
        "rich-text#menu-categorias--item2--title"
    ]
  },
  "image#menu-categorias--item2--image": {
    "props": {
        "src": "assets/banners/cat-arranjos.png",
        "link": {
            "url": "/floricultura/arranjo",
            "attributeTitle": "Arranjos"
        },
        "blockClass":"img-category",
        "alt": "Arranjos"
    }
  },
  "rich-text#menu-categorias--item2--title": {
    "props": {
      "textAlignment": "CENTER",
      "textPosition": "CENTER",
      "text": "[Arranjos](/floricultura/arranjo)",
      "blockClass":"text-category",
      "textColor": "c-on-secodary"
    }
  },
  "flex-layout.col#menu-categorias--item3": {
    "children": [
        "image#menu-categorias--item3--image",
        "rich-text#menu-categorias--item3--title"
    ]
  },
  "image#menu-categorias--item3--image": {
    "props": {
        "src": "assets/banners/cat-vasos.png",
        "link": {
            "url": "/floricultura/vasos",
            "attributeTitle": "Vasos"
        },
        "blockClass":"img-category",
        "alt": "Vasos"
    }
  },
  "rich-text#menu-categorias--item3--title": {
    "props": {
        "textAlignment": "CENTER",
        "textPosition": "CENTER",
        "text": "[Vasos](/floricultura/vasos)",
        "blockClass":"text-category",
        "textColor": "c-on-secodary"
    }
  },
  "flex-layout.col#menu-categorias--item4": {
    "children": [
        "image#menu-categorias--item4--image",
        "rich-text#menu-categorias--item4--title"
    ]
  },
  "image#menu-categorias--item4--image": {
    "props": {
        "src": "assets/banners/cat-jazido.png",
        "link": {
            "url": "/floricultura/jazigo-florido",
            "attributeTitle": "Jazido Florido"
        },
        "blockClass":"img-category",
        "alt": "Jazido Florido"
    }
  },
  "rich-text#menu-categorias--item4--title": {
    "props": {
        "textAlignment": "CENTER",
        "textPosition": "CENTER",
        "text": "[Jazido Florido](/floricultura/jazigo-florido)",
        "blockClass":"text-category",
        "textColor": "c-on-secodary"
    }
  },
  "flex-layout.col#menu-categorias--item5": {
    "children": [
        "image#menu-categorias--item5--image",
        "rich-text#menu-categorias--item5--title"
    ]
  },
  "image#menu-categorias--item5--image": {
    "props": {
        "src": "assets/banners/cat-datas-comemorativas.png",
        "link": {
            "url": "/datas-comemorativas",
            "attributeTitle": "Datas Comemorativas"
        },
        "blockClass":"img-category",
        "alt": "Datas Comemorativas"
    }
  },
  "rich-text#menu-categorias--item5--title": {
    "props": {
        "textAlignment": "CENTER",
        "textPosition": "CENTER",
        "text": "[Datas Comemorativas](/datas-comemorativas)",
        "blockClass":"text-category",
        "textColor": "c-on-secodary"
    }
  },
  "flex-layout.col#menu-categorias--item6": {
    "children": [
        "image#menu-categorias--item6--image",
        "rich-text#menu-categorias--item6--title"
    ]
  },
  "image#menu-categorias--item6--image": {
    "props": {
        "src": "assets/banners/cat-outros.png",
        "link": {
            "url": "/outros",
            "attributeTitle": "Outros"
        },
        "blockClass":"img-category",
        "alt": "Outros"
    }
  },
  "rich-text#menu-categorias--item6--title": {
    "props": {
        "textAlignment": "CENTER",
        "textPosition": "CENTER",
        "text": "[Outros](/outros)",
        "blockClass":"text-category",
        "textColor": "c-on-secodary"
  }
  }
}