<svg version="1.1" id="Camada_1" xmlns="http://www.w3.org/2000/svg" xmlns:xlink="http://www.w3.org/1999/xlink" x="0px" y="0px"
	 viewBox="0 0 24 24" style="enable-background:new 0 0 24 24;" xml:space="preserve">
<style type="text/css">
	.st0{fill:#FFCD00;}
</style>
<g>
	<path class="st0" d="M19.5,11.79L17.21,9.5H16V8H7.5v1H15v1v0.5V14h-3.59c-0.21-0.58-0.76-1-1.41-1s-1.2,0.42-1.41,1H7.5v1h1.09
		c0.21,0.58,0.76,1,1.41,1s1.2-0.42,1.41-1h4.18c0.21,0.58,0.76,1,1.41,1s1.2-0.42,1.41-1h1.09V11.79z M10,15
		c-0.28,0-0.5-0.22-0.5-0.5S9.72,14,10,14s0.5,0.22,0.5,0.5S10.28,15,10,15z M17,15c-0.28,0-0.5-0.22-0.5-0.5S16.72,14,17,14
		s0.5,0.22,0.5,0.5S17.28,15,17,15z M18.5,14h-0.09c-0.21-0.58-0.76-1-1.41-1c-0.39,0-0.73,0.15-1,0.39V10.5h0.79l1.71,1.71V14z"/>
	<rect x="5.5" y="9.5" class="st0" width="3" height="1"/>
	<rect x="4.5" y="11" class="st0" width="2.5" height="1"/>
	<rect x="5" y="12.5" class="st0" width="3" height="1"/>
</g>
</svg>
