<svg width="32" height="32" viewBox="0 0 32 32" fill="none" xmlns="http://www.w3.org/2000/svg">
<circle opacity="0.9" cx="16" cy="16" r="16" fill="white"/>
<path d="M21.3333 10.6667H10.6666C9.93331 10.6667 9.33998 11.2667 9.33998 12L9.33331 20C9.33331 20.7334 9.93331 21.3334 10.6666 21.3334H21.3333C22.0666 21.3334 22.6666 20.7334 22.6666 20V12C22.6666 11.2667 22.0666 10.6667 21.3333 10.6667ZM21.3333 13.3334L16 16.6667L10.6666 13.3334V12L16 15.3334L21.3333 12V13.3334Z" fill="#009759"/>
</svg>
