<svg width="750" height="471" viewBox="0 0 750 471" version="1.1" xmlns="http://www.w3.org/2000/svg" xmlns:xlink="http://www.w3.org/1999/xlink">
    <!-- Generator: Sketch 48.2 (47327) - http://www.bohemiancoding.com/sketch -->
    <desc>Created with Sketch.</desc>
    <defs></defs>
    <g id="Page-1" stroke="none" stroke-width="1" fill="none" fill-rule="evenodd">
        <g id="maestro" fill-rule="nonzero">
            <rect id="Rectangle-1" fill="#ffffff" x="0" y="0" height="32" rx="40"></rect>
            <g id="Group" transform="translate(133.000000, 48.000000)">
                <path d="M146.8,373.77 L146.8,349 C146.8,339.65 140.8,333.36 131.25,333.28 C126.25,333.2 120.99,334.77 117.35,340.28 C114.62,335.9 110.35,333.28 104.28,333.28 C99.6528149,333.047729 95.2479974,335.280568 92.7,339.15 L92.7,334.27 L84.09,334.27 L84.09,373.82 L92.78,373.82 L92.78,351.85 C92.78,344.98 96.59,341.34 102.46,341.34 C108.17,341.34 111.07,345.06 111.07,351.76 L111.07,373.76 L119.76,373.76 L119.76,351.85 C119.76,344.98 123.76,341.34 129.44,341.34 C135.31,341.34 138.13,345.06 138.13,351.76 L138.13,373.76 L146.8,373.77 Z M195.28,354 L195.28,334.23 L186.67,334.23 L186.67,339 C183.94,335.44 179.8,333.21 174.18,333.21 C163.09,333.21 154.41,341.9 154.41,353.98 C154.41,366.06 163.1,374.75 174.18,374.75 C179.81,374.75 183.94,372.52 186.67,368.96 L186.67,373.76 L195.28,373.76 L195.28,354 Z M163.28,354 C163.28,347.05 167.83,341.34 175.28,341.34 C182.4,341.34 187.19,346.8 187.19,354 C187.19,361.2 182.39,366.66 175.28,366.66 C167.81,366.66 163.26,360.95 163.26,354 L163.28,354 Z M379.4,333.19 C382.306602,333.161358 385.190743,333.701498 387.89,334.78 C390.404719,335.784654 392.697997,337.272736 394.64,339.16 C396.553063,341.035758 398.069744,343.276773 399.1,345.75 C401.246003,351.047587 401.246003,356.972413 399.1,362.27 C398.069744,364.743227 396.553063,366.984242 394.64,368.86 C392.698322,370.747671 390.404958,372.235809 387.89,373.24 C382.423165,375.368264 376.356835,375.368264 370.89,373.24 C368.379501,372.23863 366.092168,370.749994 364.16,368.86 C362.258485,366.978798 360.749319,364.738843 359.72,362.27 C357.573997,356.972413 357.573997,351.047587 359.72,345.75 C360.749788,343.28141 362.258895,341.041542 364.16,339.16 C366.092334,337.270213 368.379623,335.781606 370.89,334.78 C373.595493,333.69893 376.486681,333.158743 379.4,333.19 Z M379.4,341.33 C377.718221,341.315441 376.049964,341.631425 374.49,342.26 C373.019746,342.850363 371.685751,343.735156 370.57,344.86 C369.447092,346.008077 368.563336,347.367702 367.97,348.86 C366.704271,352.169784 366.704271,355.830216 367.97,359.14 C368.562861,360.632544 369.446675,361.992258 370.57,363.14 C371.685751,364.264844 373.019746,365.149637 374.49,365.74 C377.649488,366.979283 381.160512,366.979283 384.32,365.74 C385.794284,365.146098 387.134154,364.26192 388.26,363.14 C389.392829,361.995929 390.283848,360.635594 390.88,359.14 C392.145729,355.830216 392.145729,352.169784 390.88,348.86 C390.283848,347.364406 389.392829,346.004071 388.26,344.86 C387.134154,343.73808 385.794284,342.853902 384.32,342.26 C382.757613,341.626714 381.085807,341.307304 379.4,341.32 L379.4,341.33 Z M242.1,354 C242.02,341.67 234.41,333.23 223.32,333.23 C211.74,333.23 203.63,341.67 203.63,354 C203.63,366.58 212.07,374.77 223.9,374.77 C229.9,374.77 235.32,373.28 240.12,369.23 L235.9,362.86 C232.633262,365.479648 228.586894,366.936341 224.4,367 C218.86,367 213.81,364.44 212.57,357.32 L241.94,357.32 C242,356.23 242.1,355.16 242.1,354 Z M212.65,350.53 C213.56,344.82 217.03,340.93 223.16,340.93 C228.7,340.93 232.26,344.4 233.16,350.53 L212.65,350.53 Z M278.34,344.33 C274.582803,342.165547 270.335565,340.995319 266,340.93 C261.28,340.93 258.47,342.67 258.47,345.56 C258.47,348.21 261.47,348.95 265.17,349.45 L269.22,350.03 C277.83,351.27 283.04,354.91 283.04,361.86 C283.04,369.39 276.42,374.77 265.04,374.77 C258.59,374.77 252.63,373.11 247.91,369.64 L251.96,362.94 C255.757785,365.757702 260.39304,367.215905 265.12,367.08 C270.99,367.08 274.12,365.34 274.12,362.28 C274.12,360.05 271.89,358.81 267.17,358.14 L263.12,357.56 C254.27,356.32 249.47,352.35 249.47,345.89 C249.47,338.03 255.92,333.23 265.93,333.23 C272.22,333.23 277.93,334.64 282.06,337.37 L278.34,344.33 Z M319.69,342.1 L305.62,342.1 L305.62,360 C305.62,364 307.03,366.62 311.33,366.62 C314.014365,366.531754 316.632562,365.76453 318.94,364.39 L321.42,371.75 C318.192475,373.761602 314.463066,374.822196 310.66,374.81 C300.48,374.81 296.93,369.35 296.93,360.16 L296.93,342.16 L288.93,342.16 L288.93,334.3 L296.93,334.3 L296.93,322.3 L305.62,322.3 L305.62,334.3 L319.68,334.3 L319.69,342.1 Z M349.47,333.25 C351.556514,333.260012 353.62609,333.625232 355.59,334.33 L352.94,342.44 C351.229904,341.756022 349.401653,341.416198 347.56,341.44 C341.93,341.44 339.12,345.08 339.12,351.62 L339.12,373.79 L330.52,373.79 L330.52,334.23 L339,334.23 L339,339 C341.149726,335.306198 345.148028,333.084492 349.42,333.21 L349.47,333.25 Z" id="Shape" fill="#FFFFFF"></path>
                <g id="_Group_">
                    <rect id="Rectangle-path" fill="#7673C0" x="176.95" y="32.39" width="130.5" height="234.51"></rect>
                    <path d="M185.24,149.64 C185.20514,103.86954 206.225386,60.6268374 242.24,32.38 C181.092968,-15.6818249 93.2777189,-8.68578574 40.5116372,48.4512353 C-12.2544445,105.588256 -12.2544445,193.681744 40.5116372,250.818765 C93.2777189,307.955786 181.092968,314.951825 242.24,266.89 C206.228151,238.645328 185.208215,195.406951 185.24,149.64 Z" id="_Path_" fill="#EB001B"></path>
                    <path d="M483.5,149.64 C483.501034,206.73874 450.90156,258.826356 399.545558,283.782862 C348.189556,308.739368 287.092343,302.183759 242.2,266.9 C278.166584,238.620187 299.164715,195.398065 299.164715,149.645 C299.164715,103.891935 278.166584,60.669813 242.2,32.39 C287.090924,-2.89264477 348.185845,-9.44904288 399.541061,15.5049525 C450.896277,40.4589479 483.497206,92.543064 483.5,149.64 Z" id="Shape" fill="#00A1DF"></path>
                </g>
            </g>
        </g>
    </g>
</svg>
